me\rochblondiaux\duke\screens\OptionScreen.class
me\rochblondiaux\duke\ui\buttons\ButtonStyle.class
me\rochblondiaux\duke\input\DukeMovementController.class
me\rochblondiaux\duke\ui\popup\PausePopUp.class
me\rochblondiaux\duke\screens\MenuScreen.class
me\rochblondiaux\duke\entity\ability\effects\ScreenShakeEffect.class
me\rochblondiaux\duke\ui\buttons\Button.class
me\rochblondiaux\duke\ui\popup\PopUpStyles.class
me\rochblondiaux\duke\entity\enemy\EnemyController.class
me\rochblondiaux\duke\entity\Damageable.class
me\rochblondiaux\duke\ui\HUD.class
me\rochblondiaux\duke\entity\ability\JumpAbility.class
me\rochblondiaux\duke\entity\ability\effects\JumpEffect.class
me\rochblondiaux\duke\Launcher.class
me\rochblondiaux\duke\entity\ability\AttackAbility.class
me\rochblondiaux\duke\screens\InGameScreen.class
me\rochblondiaux\duke\utils\RandomUtil.class
me\rochblondiaux\duke\game\GameManager$1.class
me\rochblondiaux\duke\game\GameManager.class
me\rochblondiaux\duke\entity\enemy\EnemyController$1.class
me\rochblondiaux\duke\entity\enemy\Enemy$1.class
me\rochblondiaux\duke\ui\buttons\Button$1.class
me\rochblondiaux\duke\ui\buttons\ButtonState.class
me\rochblondiaux\duke\entity\living\LivingEntityAnimationController.class
me\rochblondiaux\duke\entity\player\Player.class
me\rochblondiaux\duke\ui\popup\PopUpStyle.class
me\rochblondiaux\duke\entity\enemy\Enemy.class
me\rochblondiaux\duke\entity\animation\LivingEntityAnimationType.class
me\rochblondiaux\duke\entity\enemy\EnemyHealthBar.class
me\rochblondiaux\duke\ui\buttons\ButtonStyles.class
me\rochblondiaux\duke\ui\popup\PopUp.class
me\rochblondiaux\duke\entity\enemy\EnemyState.class
me\rochblondiaux\duke\entity\living\LivingEntity$1.class
me\rochblondiaux\duke\entity\player\Player$1.class
me\rochblondiaux\duke\game\GameState.class
me\rochblondiaux\duke\Duke.class
me\rochblondiaux\duke\entity\living\LivingEntity.class
me\rochblondiaux\duke\entity\pig\Pig.class
me\rochblondiaux\duke\entity\pathfinder\EnemyPathFinder.class
me\rochblondiaux\duke\entity\ability\effects\HitEffect.class
